%YAML 1.1
%TAG !u! tag:unity3d.com,2011:
--- !u!1045 &1
EditorBuildSettings:
  m_ObjectHideFlags: 0
  serializedVersion: 2
  m_Scenes:
  - enabled: 1
    path: Assets/Scenes/Start.unity
    guid: 67da39742e5214e9e9697332210563ec
  - enabled: 1
    path: Assets/Scenes/Intro.unity
    guid: bd0a8436bc9504902a6b969d7644f81e
  - enabled: 1
    path: Assets/Scenes/cutscenes/1.unity
    guid: 4aa911b5e379942dab0002afbcb688f6
  - enabled: 1
    path: Assets/Scenes/DesertScene.unity
    guid: b31eba2d97dcb43cc82b4eefef5271d1
  - enabled: 1
    path: Assets/Scenes/cutscenes/2.unity
    guid: 3af43ed4a55724537b560e55a0dd97d7
  - enabled: 1
    path: Assets/Scenes/cutscenes/3.unity
    guid: 8c644300027e14a6ea6d36f66aa4a1b1
  - enabled: 1
    path: Assets/Scenes/cutscenes/4.unity
    guid: 3354bbbfe709449c3a1fe0323fb88fa0
  - enabled: 1
    path: Assets/Scenes/FightEncounterScene.unity
    guid: e0df7f2a8b82c4f82baacb7a7ee73380
  - enabled: 1
    path: Assets/Scenes/Lose.unity
    guid: 740d953619ee44ae8989c68d73d08d76
  - enabled: 1
    path: Assets/Scenes/Win.unity
    guid: d3272ac10c4514a0f86cdc98272b59b8
  - enabled: 1
    path: Assets/Scenes/cutscenes/6.unity
    guid: 95381846b438a40de96a2812cff86bd9
  - enabled: 1
    path: Assets/Scenes/Fin.unity
    guid: aed26a7d4b82c4b0d9798bf2d3335dc6
  - enabled: 1
    path: Assets/Scenes/End.unity
    guid: 202c141427dc244e8ba89671580f6e82
  - enabled: 1
    path: Assets/Scenes/cutscenes/5.unity
    guid: f441ab2f138ae4d068d528285638fcac
  m_configObjects: {}
